<?xml version="1.0" encoding="UTF-8" standalone="no"?>
<!-- Created with Inkscape (http://www.inkscape.org/) -->

<svg
   xmlns:dc="http://purl.org/dc/elements/1.1/"
   xmlns:cc="http://creativecommons.org/ns#"
   xmlns:rdf="http://www.w3.org/1999/02/22-rdf-syntax-ns#"
   xmlns:svg="http://www.w3.org/2000/svg"
   xmlns="http://www.w3.org/2000/svg"
   xmlns:sodipodi="http://sodipodi.sourceforge.net/DTD/sodipodi-0.dtd"
   xmlns:inkscape="http://www.inkscape.org/namespaces/inkscape"
   width="24"
   height="24"
   viewBox="0 0 6.3499999 6.3500002"
   version="1.1"
   id="svg8"
   inkscape:version="0.92.4 (5da689c313, 2019-01-14)"
   sodipodi:docname="plus.svg">
  <defs
     id="defs2" />
  <sodipodi:namedview
     id="base"
     pagecolor="#ffffff"
     bordercolor="#666666"
     borderopacity="1.0"
     inkscape:pageopacity="0.0"
     inkscape:pageshadow="2"
     inkscape:zoom="7.9195959"
     inkscape:cx="11.069883"
     inkscape:cy="6.4152016"
     inkscape:document-units="px"
     inkscape:current-layer="layer1"
     showgrid="false"
     units="px"
     inkscape:window-width="960"
     inkscape:window-height="1001"
     inkscape:window-x="951"
     inkscape:window-y="-9"
     inkscape:window-maximized="0" />
  <metadata
     id="metadata5">
    <rdf:RDF>
      <cc:Work
         rdf:about="">
        <dc:format>image/svg+xml</dc:format>
        <dc:type
           rdf:resource="http://purl.org/dc/dcmitype/StillImage" />
        <dc:title></dc:title>
      </cc:Work>
    </rdf:RDF>
  </metadata>
  <g
     inkscape:label="Layer 1"
     inkscape:groupmode="layer"
     id="layer1"
     transform="translate(0,-290.64999)">
    <path
       style="opacity:0.95999995;fill:none;fill-opacity:1;fill-rule:nonzero;stroke:#000000;stroke-width:0.22067697;stroke-linecap:round;stroke-linejoin:round;stroke-miterlimit:4;stroke-dasharray:none;stroke-dashoffset:0;stroke-opacity:1;paint-order:normal"
       d="m 2.9274018,291.40632 c -0.1502991,0 -0.2716848,0.12262 -0.2716848,0.27212 v 1.62683 H 1.0291374 c -0.15029919,0 -0.27168609,0.12237 -0.27168609,0.27212 v 0.49549 c 0,0.14948 0.11978645,0.27212 0.27168609,0.27212 H 2.655717 v 1.62651 c 0,0.14949 0.1197865,0.27215 0.2716848,0.27215 H 3.422615 c 0.1502995,0 0.2716848,-0.12265 0.2716848,-0.27215 V 294.345 h 1.6265641 c 0.150299,0 0.2716848,-0.12264 0.2716848,-0.27212 v -0.49549 c 0,-0.14949 -0.1197864,-0.27212 -0.2716848,-0.27212 H 3.6942945 v -1.62671 c 0,-0.1495 -0.1197864,-0.27216 -0.2716861,-0.27216 z"
       id="rect1261"
       inkscape:connector-curvature="0" />
  </g>
</svg>
