<?xml version="1.0" encoding="UTF-8" standalone="no"?>
<!-- Created with Inkscape (http://www.inkscape.org/) -->

<svg
   xmlns:dc="http://purl.org/dc/elements/1.1/"
   xmlns:cc="http://creativecommons.org/ns#"
   xmlns:rdf="http://www.w3.org/1999/02/22-rdf-syntax-ns#"
   xmlns:svg="http://www.w3.org/2000/svg"
   xmlns="http://www.w3.org/2000/svg"
   xmlns:sodipodi="http://sodipodi.sourceforge.net/DTD/sodipodi-0.dtd"
   xmlns:inkscape="http://www.inkscape.org/namespaces/inkscape"
   width="24"
   height="24"
   viewBox="0 0 6.3499999 6.3500002"
   version="1.1"
   id="svg8"
   inkscape:version="0.92.4 (5da689c313, 2019-01-14)"
   sodipodi:docname="save_and_exit.svg">
  <defs
     id="defs2" />
  <sodipodi:namedview
     id="base"
     pagecolor="#ffffff"
     bordercolor="#666666"
     borderopacity="1.0"
     inkscape:pageopacity="0.0"
     inkscape:pageshadow="2"
     inkscape:zoom="7.9195959"
     inkscape:cx="-5.3890071"
     inkscape:cy="3.4720391"
     inkscape:document-units="px"
     inkscape:current-layer="layer1"
     showgrid="false"
     units="px"
     inkscape:window-width="958"
     inkscape:window-height="991"
     inkscape:window-x="952"
     inkscape:window-y="0"
     inkscape:window-maximized="0" />
  <metadata
     id="metadata5">
    <rdf:RDF>
      <cc:Work
         rdf:about="">
        <dc:format>image/svg+xml</dc:format>
        <dc:type
           rdf:resource="http://purl.org/dc/dcmitype/StillImage" />
        <dc:title></dc:title>
      </cc:Work>
    </rdf:RDF>
  </metadata>
  <g
     inkscape:label="Layer 1"
     inkscape:groupmode="layer"
     id="layer1"
     transform="translate(0,-290.64999)">
    <path
       id="path1299"
       style="fill:none;stroke:#000000;stroke-width:0.23627292;stroke-linecap:round;stroke-linejoin:round;stroke-miterlimit:4;stroke-dasharray:none;stroke-opacity:1"
       d="m 2.6925804,294.84521 h 0.525923 m -2.112508,-2.83505 c -0.18583898,0 -0.33551698,0.15044 -0.33551698,0.33591 v 2.95784 c 0,0.18649 0.149682,0.33591 0.33551698,0.33591 h 2.9578459 c 0.1858391,0 0.3355152,-0.15044 0.3355152,-0.33591 v -2.18515 l -0.9529712,-1.1086 z m 0.814161,0.0146 v 0.85955 h 1.301963 v -0.87219 m -1.649575,3.5646 v -1.44101 h 2.003505 v 1.47261 m -0.883469,-1.08206 h 0.525923 m 1.203988,-0.88595 h 0.4428012 v -0.2625 l 0.7142339,0.71382 -0.688794,0.68914 v -0.22858 l -0.4874191,0.003"
       inkscape:connector-curvature="0" />
  </g>
</svg>
